<?xml version="1.0" encoding="UTF-8" standalone="no"?>
<svg
   xmlns:dc="http://purl.org/dc/elements/1.1/"
   xmlns:cc="http://creativecommons.org/ns#"
   xmlns:rdf="http://www.w3.org/1999/02/22-rdf-syntax-ns#"
   xmlns:svg="http://www.w3.org/2000/svg"
   xmlns="http://www.w3.org/2000/svg"
   xmlns:sodipodi="http://sodipodi.sourceforge.net/DTD/sodipodi-0.dtd"
   xmlns:inkscape="http://www.inkscape.org/namespaces/inkscape"
   xml:space="preserve"
   version="1.0"
   id="layer1"
   width="64"
   height="64"
   viewBox="0 0 9.0000003 9.0000003"
   inkscape:version="0.92.0 r15299"
   sodipodi:docname="mute-inactive.svg"><defs
     id="defs3007" /><sodipodi:namedview
     pagecolor="#ffffff"
     bordercolor="#666666"
     borderopacity="1"
     objecttolerance="10"
     gridtolerance="10"
     guidetolerance="10"
     inkscape:pageopacity="0"
     inkscape:pageshadow="2"
     inkscape:window-width="1920"
     inkscape:window-height="1031"
     id="namedview3005"
     showgrid="false"
     showguides="true"
     inkscape:guide-bbox="true"
     inkscape:zoom="7.3425968"
     inkscape:cx="47.291443"
     inkscape:cy="30.071106"
     inkscape:window-x="0"
     inkscape:window-y="25"
     inkscape:window-maximized="1"
     inkscape:current-layer="layer1"
     inkscape:snap-smooth-nodes="false"
     inkscape:object-paths="false"
     units="px"
     inkscape:lockguides="true"><sodipodi:guide
       orientation="0,1"
       position="42.491779,326.85984"
       id="guide3009"
       inkscape:locked="true" /><sodipodi:guide
       orientation="0,1"
       position="118.64407,164.86903"
       id="guide3011"
       inkscape:locked="true" /><sodipodi:guide
       orientation="1,0"
       position="324.34515,194.53005"
       id="guide3005"
       inkscape:locked="true" /><sodipodi:guide
       orientation="1,0"
       position="462.63482,170.64715"
       id="guide3007"
       inkscape:locked="true" /><sodipodi:guide
       position="-3.3515902,7.8331452"
       orientation="0,1"
       id="guide4490"
       inkscape:locked="true" /><sodipodi:guide
       position="-3.5622616,1.1874205"
       orientation="0,1"
       id="guide4492"
       inkscape:locked="true" /><sodipodi:guide
       position="5.4200002,6.7031805"
       orientation="1,0"
       id="guide4494"
       inkscape:locked="true" /><sodipodi:guide
       position="6.2435338,5.9562547"
       orientation="1,0"
       id="guide4496"
       inkscape:locked="true" /><sodipodi:guide
       position="7.909753,5.6498236"
       orientation="1,0"
       id="guide4498"
       inkscape:locked="true" /><sodipodi:guide
       position="7.0479155,6.9521558"
       orientation="1,0"
       id="guide4502"
       inkscape:locked="true" /><sodipodi:guide
       position="2.738728,4.3857952"
       orientation="0,1"
       id="guide4506"
       inkscape:locked="true" /><sodipodi:guide
       position="4.4240991,8.0438166"
       orientation="0,1"
       id="guide4527"
       inkscape:locked="true" /><sodipodi:guide
       position="3.428198,0.97674916"
       orientation="0,1"
       id="guide4529"
       inkscape:locked="true" /><sodipodi:guide
       position="12.793499,8.2736399"
       orientation="0,1"
       id="guide4531"
       inkscape:locked="true" /><sodipodi:guide
       position="10.43781,0.74692583"
       orientation="0,1"
       id="guide4533"
       inkscape:locked="true" /></sodipodi:namedview><metadata
     id="metadata1"><rdf:RDF><cc:Work
         rdf:about=""><dc:format>image/svg+xml</dc:format><dc:type
           rdf:resource="http://purl.org/dc/dcmitype/StillImage" /><dc:title /></cc:Work></rdf:RDF></metadata><g
     id="g1"
     transform="translate(0,-65.999997)"
     style="fill:#ffffff"><g
       id="g4496"
       transform="matrix(0.12332204,0,0,0.12332204,-0.1503771,65.781758)"
       style="fill:#ffffff"><path
         style="color:#000000;font-style:normal;font-variant:normal;font-weight:normal;font-stretch:normal;font-size:medium;line-height:normal;font-family:sans-serif;font-variant-ligatures:normal;font-variant-position:normal;font-variant-caps:normal;font-variant-numeric:normal;font-variant-alternates:normal;font-feature-settings:normal;text-indent:0;text-align:start;text-decoration:none;text-decoration-line:none;text-decoration-style:solid;text-decoration-color:#000000;letter-spacing:normal;word-spacing:normal;text-transform:none;writing-mode:lr-tb;direction:ltr;text-orientation:mixed;dominant-baseline:auto;baseline-shift:baseline;text-anchor:start;white-space:normal;shape-padding:0;clip-rule:nonzero;display:inline;overflow:visible;visibility:visible;opacity:1;isolation:auto;mix-blend-mode:normal;color-interpolation:sRGB;color-interpolation-filters:linearRGB;solid-color:#000000;solid-opacity:1;vector-effect:none;fill:#ffffff;fill-opacity:1;fill-rule:nonzero;stroke:none;stroke-width:5;stroke-linecap:butt;stroke-linejoin:round;stroke-miterlimit:4;stroke-dasharray:none;stroke-dashoffset:0;stroke-opacity:1;color-rendering:auto;image-rendering:auto;shape-rendering:auto;text-rendering:auto;enable-background:accumulate"
         d="m 39.314453,11.269531 c -0.574781,0.01762 -1.12592,0.232833 -1.560547,0.609375 L 21.304688,26.105469 H 6 c -1.3806547,1.38e-4 -2.499862,1.119345 -2.5,2.5 v 19.09375 c 1.38e-4,1.380655 1.1193453,2.499862 2.5,2.5 h 15.058594 l 16.695312,14.441406 c 1.619403,1.399029 4.133602,0.249409 4.134766,-1.890625 V 13.769531 c 4.76e-4,-1.410162 -1.164674,-2.541719 -2.574219,-2.5 z"
         id="polygon1"
         inkscape:connector-curvature="0"
         sodipodi:nodetypes="cccccccccccc" /></g><path
       style="color:#000000;font-style:normal;font-variant:normal;font-weight:normal;font-stretch:normal;font-size:medium;line-height:normal;font-family:sans-serif;font-variant-ligatures:normal;font-variant-position:normal;font-variant-caps:normal;font-variant-numeric:normal;font-variant-alternates:normal;font-feature-settings:normal;text-indent:0;text-align:start;text-decoration:none;text-decoration-line:none;text-decoration-style:solid;text-decoration-color:#000000;letter-spacing:normal;word-spacing:normal;text-transform:none;writing-mode:lr-tb;direction:ltr;text-orientation:mixed;dominant-baseline:auto;baseline-shift:baseline;text-anchor:start;white-space:normal;shape-padding:0;clip-rule:nonzero;display:inline;overflow:visible;visibility:visible;opacity:1;isolation:auto;mix-blend-mode:normal;color-interpolation:sRGB;color-interpolation-filters:linearRGB;solid-color:#000000;solid-opacity:1;vector-effect:none;fill:#ffffff;fill-opacity:1;fill-rule:nonzero;stroke:none;stroke-width:0.421875;stroke-linecap:round;stroke-linejoin:miter;stroke-miterlimit:4;stroke-dasharray:none;stroke-dashoffset:0;stroke-opacity:1;color-rendering:auto;image-rendering:auto;shape-rendering:auto;text-rendering:auto;enable-background:accumulate"
       d="m 5.40625,66.953125 a 0.21095859,0.21095859 0 0 0 -0.1777344,0.304687 c 0.8139578,1.723676 1.2011719,2.564351 1.2011719,3.326172 0,0.761822 -0.3833079,1.533625 -1.1972656,3.132813 a 0.21095859,0.21095859 0 1 0 0.375,0.191406 c 0.8139577,-1.599187 1.2441406,-2.424609 1.2441406,-3.324219 0,-0.899609 -0.4262766,-1.784137 -1.2402344,-3.507812 A 0.21095859,0.21095859 0 0 0 5.40625,66.953125 Z"
       id="path4504"
       inkscape:connector-curvature="0" /><path
       style="color:#000000;font-style:normal;font-variant:normal;font-weight:normal;font-stretch:normal;font-size:medium;line-height:normal;font-family:sans-serif;font-variant-ligatures:normal;font-variant-position:normal;font-variant-caps:normal;font-variant-numeric:normal;font-variant-alternates:normal;font-feature-settings:normal;text-indent:0;text-align:start;text-decoration:none;text-decoration-line:none;text-decoration-style:solid;text-decoration-color:#000000;letter-spacing:normal;word-spacing:normal;text-transform:none;writing-mode:lr-tb;direction:ltr;text-orientation:mixed;dominant-baseline:auto;baseline-shift:baseline;text-anchor:start;white-space:normal;shape-padding:0;clip-rule:nonzero;display:inline;overflow:visible;visibility:visible;opacity:1;isolation:auto;mix-blend-mode:normal;color-interpolation:sRGB;color-interpolation-filters:linearRGB;solid-color:#000000;solid-opacity:1;vector-effect:none;fill:#ffffff;fill-opacity:1;fill-rule:nonzero;stroke:none;stroke-width:0.421875;stroke-linecap:round;stroke-linejoin:miter;stroke-miterlimit:4;stroke-dasharray:none;stroke-dashoffset:0;stroke-opacity:1;color-rendering:auto;image-rendering:auto;shape-rendering:auto;text-rendering:auto;enable-background:accumulate"
       d="m 6.2304688,66.742188 a 0.21095859,0.21095859 0 0 0 -0.1777344,0.304687 c 0.8125408,1.720675 1.2011718,2.6622 1.2011718,3.537109 0,0.87491 -0.3869595,1.7479 -1.1992187,3.34375 a 0.21138252,0.21138252 0 1 0 0.3769531,0.191407 c 0.8156563,-1.602525 1.2441407,-2.537964 1.2441406,-3.535157 0,-0.997192 -0.4268128,-1.992074 -1.2421874,-3.71875 a 0.21095859,0.21095859 0 0 0 -0.203125,-0.123046 z"
       id="path4523"
       inkscape:connector-curvature="0" /><path
       style="color:#000000;font-style:normal;font-variant:normal;font-weight:normal;font-stretch:normal;font-size:medium;line-height:normal;font-family:sans-serif;font-variant-ligatures:normal;font-variant-position:normal;font-variant-caps:normal;font-variant-numeric:normal;font-variant-alternates:normal;font-feature-settings:normal;text-indent:0;text-align:start;text-decoration:none;text-decoration-line:none;text-decoration-style:solid;text-decoration-color:#000000;letter-spacing:normal;word-spacing:normal;text-transform:none;writing-mode:lr-tb;direction:ltr;text-orientation:mixed;dominant-baseline:auto;baseline-shift:baseline;text-anchor:start;white-space:normal;shape-padding:0;clip-rule:nonzero;display:inline;overflow:visible;visibility:visible;opacity:1;isolation:auto;mix-blend-mode:normal;color-interpolation:sRGB;color-interpolation-filters:linearRGB;solid-color:#000000;solid-opacity:1;vector-effect:none;fill:#ffffff;fill-opacity:1;fill-rule:nonzero;stroke:none;stroke-width:0.421875;stroke-linecap:round;stroke-linejoin:miter;stroke-miterlimit:4;stroke-dasharray:none;stroke-dashoffset:0;stroke-opacity:1;color-rendering:auto;image-rendering:auto;shape-rendering:auto;text-rendering:auto;enable-background:accumulate"
       d="m 7.0351562,66.513672 a 0.21095859,0.21095859 0 0 0 -0.1777343,0.302734 c 0.8109951,1.717401 1.2011719,2.771072 1.2011719,3.767578 0,0.996507 -0.3888125,1.982009 -1.1992188,3.574219 a 0.21138229,0.21138229 0 1 0 0.3769531,0.191406 c 0.8175092,-1.606165 1.2441407,-2.660206 1.2441407,-3.765625 0,-1.105419 -0.4252672,-2.217316 -1.2421876,-3.947265 a 0.21095859,0.21095859 0 0 0 -0.203125,-0.123047 z"
       id="path4525"
       inkscape:connector-curvature="0" /></g></svg>